################################################################
Make a handy HFE to DSK
----------------------------------------------------------------

Use the command line version of the HXC Simulator to do the work
Wrap it with platypus (remember to add the Frameworks by hand into the App folder's Contents)